…
``` r
city_nest = homicide %>% 
  select(city_state, victim_race, victim_age, victim_sex, outcome) %>% 
  mutate(outcome = case_when(outcome ==  'not solved' ~ "0",
                           outcome ==  'solved' ~ "1")) %>% 
  mutate(outcome = as.numeric(outcome)) %>% 
  nest(data = victim_race:outcome)
```

``` r
city_nest %>% pull(data)
```

    ## [[1]]
    ## # A tibble: 178 × 4
    ##    victim_race victim_age victim_sex outcome
    ##    <chr>            <dbl> <chr>        <dbl>
    ##  1 White               15 Female           0
    ##  2 White               72 Female           0
    ##  3 White               91 Female           0
    ##  4 White               56 Male             0
    ##  5 White               NA Male             0
    ##  6 White               43 Female           1
    ##  7 White               52 Male             1
    ##  8 White               22 Female           1
    ##  9 Black               15 Male             1
    ## 10 Black               25 Male             1
    ## # … with 168 more rows
    ## 
    ## [[2]]
    ## # A tibble: 945 × 4
    ##    victim_race victim_age victim_sex outcome
    ##    <chr>            <dbl> <chr>        <dbl>
    ##  1 Black               29 Male             1
    ##  2 Black               29 Male             1
    ##  3 Black               26 Male             1
    ##  4 Black               75 Male             0
    ##  5 Black               22 Male             0
    ##  6 Black               40 Male             1
    ##  7 Black                1 Female           1
    ##  8 Black               25 Male             1
    ##  9 Black               25 Male             0
    ## 10 Black               46 Male             1
    ## # … with 935 more rows
    ## 
    ## [[3]]
    ## # A tibble: 2,753 × 4
    ##    victim_race victim_age victim_sex outcome
    ##    <chr>            <dbl> <chr>        <dbl>
    ##  1 Black               17 Male             0
    ##  2 Black               26 Male             0
    ##  3 Black               21 Male             0
    ##  4 White               61 Male             1
    ##  5 Black               46 Male             1
    ##  6 Black               27 Male             1
    ##  7 Black               21 Male             1
    ##  8 Black               16 Male             1
    ##  9 Black               21 Male             1
    ## 10 Black               44 Female           1
    ## # … with 2,743 more rows
    ## 
    ## [[4]]
    ## # A tibble: 410 × 4
    ##    victim_race victim_age victim_sex outcome
    ##    <chr>            <dbl> <chr>        <dbl>
    ##  1 Black               38 Male             0
    ##  2 Black               46 Male             0
    ##  3 Black               30 Male             0
    ##  4 Black               14 Male             1
    ##  5 Black               21 Male             0
    ##  6 Black               25 Female           1
    ##  7 Black               23 Male             1
    ##  8 Black               27 Male             1
    ##  9 Black               63 Male             0
    ## 10 Black               38 Female           1
    ## # … with 400 more rows
    ## 
    ## [[5]]
    ## # A tibble: 771 × 4
    ##    victim_race victim_age victim_sex outcome
    ##    <chr>            <dbl> <chr>        <dbl>
    ##  1 Black               37 Male             0
    ##  2 Black               37 Male             1
    ##  3 White               26 Male             0
    ##  4 Black               35 Male             1
    ##  5 Black               46 Male             0
    ##  6 Black               29 Male             1
    ##  7 Black               33 Male             0
    ##  8 Black               34 Male             0
    ##  9 Black               41 Male             0
    ## 10 Black               23 Male             1
    ## # … with 761 more rows
    ## 
    ## [[6]]
    ## # A tibble: 492 × 4
    ##    victim_race victim_age victim_sex outcome
    ##    <chr>            <dbl> <chr>        <dbl>
    ##  1 Black               26 Male             0
    ##  2 Black               30 Male             0
    ##  3 Black               19 Male             0
    ##  4 Black               76 Male             0
    ##  5 Black               22 Male             0
    ##  6 White                4 Female           0
    ##  7 Black               15 Male             1
    ##  8 Black               29 Male             1
    ##  9 White               32 Male             1
    ## 10 Black               26 Male             1
    ## # … with 482 more rows
    ## 
    ## [[7]]
    ## # A tibble: 479 × 4
    ##    victim_race victim_age victim_sex outcome
    ##    <chr>            <dbl> <chr>        <dbl>
    ##  1 Black               18 Female           0
    ##  2 Black               17 Male             0
    ##  3 Black               20 Male             1
    ##  4 Black               22 Male             1
    ##  5 White               38 Male             1
    ##  6 Black               18 Male             0
    ##  7 Black               23 Male             1
    ##  8 Black               32 Male             1
    ##  9 Black               26 Male             0
    ## 10 Black               30 Male             1
    ## # … with 469 more rows
    ## 
    ## [[8]]
    ## # A tibble: 584 × 4
    ##    victim_race victim_age victim_sex outcome
    ##    <chr>            <dbl> <chr>        <dbl>
    ##  1 Black               63 Female           1
    ##  2 Black               65 Male             1
    ##  3 Black               17 Male             1
    ##  4 Black               55 Male             1
    ##  5 Black               21 Female           1
    ##  6 Black               17 Male             0
    ##  7 Black               37 Male             1
    ##  8 Black               31 Male             1
    ##  9 Black               28 Male             1
    ## 10 Black               20 Male             0
    ## # … with 574 more rows
    ## 
    ## [[9]]
    ## # A tibble: 4,507 × 4
    ##    victim_race victim_age victim_sex outcome
    ##    <chr>            <dbl> <chr>        <dbl>
    ##  1 Black               36 Male             1
    ##  2 Black               31 Male             0
    ##  3 Black               21 Male             1
    ##  4 White               34 Male             1
    ##  5 Black               37 Male             0
    ##  6 White               31 Male             0
    ##  7 Black               38 Male             0
    ##  8 Black               29 Male             1
    ##  9 Black               31 Male             0
    ## 10 Black               24 Female           0
    ## # … with 4,497 more rows
    ## 
    ## [[10]]
    ## # A tibble: 679 × 4
    ##    victim_race victim_age victim_sex outcome
    ##    <chr>            <dbl> <chr>        <dbl>
    ##  1 Black               26 Female           0
    ##  2 Black               21 Male             1
    ##  3 White               47 Female           0
    ##  4 Black               14 Male             0
    ##  5 Black               26 Male             0
    ##  6 Black               21 Male             0
    ##  7 White                0 Male             1
    ##  8 Black               26 Male             0
    ##  9 Black               51 Male             1
    ## 10 Black               24 Male             0
    ## # … with 669 more rows
    ## 
    ## [[11]]
    ## # A tibble: 1,026 × 4
    ##    victim_race victim_age victim_sex outcome
    ##    <chr>            <dbl> <chr>        <dbl>
    ##  1 White               59 Female           0
    ##  2 Black               21 Male             1
    ##  3 White               51 Male             0
    ##  4 Black               15 Male             0
    ##  5 Black               30 Male             0
    ##  6 Black               32 Female           1
    ##  7 Black               10 Female           1
    ##  8 Black                7 Female           1
    ##  9 Black               21 Male             1
    ## 10 Black               45 Male             1
    ## # … with 1,016 more rows
    ## 
    ## [[12]]
    ## # A tibble: 208 × 4
    ##    victim_race victim_age victim_sex outcome
    ##    <chr>            <dbl> <chr>        <dbl>
    ##  1 White               38 Male             0
    ##  2 Black               19 Male             0
    ##  3 Black               21 Male             0
    ##  4 White               30 Female           0
    ##  5 White               83 Female           1
    ##  6 White                0 Male             1
    ##  7 Black               73 Male             0
    ##  8 Black               17 Male             1
    ##  9 Black               21 Female           0
    ## 10 White               40 Male             0
    ## # … with 198 more rows
    ## 
    ## [[13]]
    ## # A tibble: 2,457 × 4
    ##    victim_race victim_age victim_sex outcome
    ##    <chr>            <dbl> <chr>        <dbl>
    ##  1 White               60 Male             1
    ##  2 Black               20 Male             0
    ##  3 Black               30 Male             0
    ##  4 Black               24 Female           0
    ##  5 Black               33 Male             1
    ##  6 Black               26 Male             0
    ##  7 White               28 Male             0
    ##  8 Black               33 Male             1
    ##  9 Black               28 Male             0
    ## 10 Black               35 Male             1
    ## # … with 2,447 more rows
    ## 
    ## [[14]]
    ## # A tibble: 230 × 4
    ##    victim_race victim_age victim_sex outcome
    ##    <chr>            <dbl> <chr>        <dbl>
    ##  1 Black               25 Female           1
    ##  2 White               62 Male             1
    ##  3 Black                0 Male             1
    ##  4 Black               14 Female           1
    ##  5 Black               49 Male             0
    ##  6 Black               19 Male             1
    ##  7 Black               15 Male             1
    ##  8 Black               39 Male             0
    ##  9 Black               26 Male             1
    ## 10 Black               25 Male             1
    ## # … with 220 more rows
    ## 
    ## [[15]]
    ## # A tibble: 383 × 4
    ##    victim_race victim_age victim_sex outcome
    ##    <chr>            <dbl> <chr>        <dbl>
    ##  1 Black               22 Male             0
    ##  2 Black               22 Male             1
    ##  3 Black               20 Male             1
    ##  4 White               49 Female           0
    ##  5 White               21 Female           0
    ##  6 Black               22 Female           1
    ##  7 Black               24 Male             1
    ##  8 White               46 Male             0
    ##  9 Black               21 Male             0
    ## 10 Black               20 Male             0
    ## # … with 373 more rows
    ## 
    ## [[16]]
    ## # A tibble: 210 × 4
    ##    victim_race victim_age victim_sex outcome
    ##    <chr>            <dbl> <chr>        <dbl>
    ##  1 Black               22 Male             0
    ##  2 White               33 Female           0
    ##  3 Black               19 Male             1
    ##  4 Black               26 Male             0
    ##  5 Black               26 Male             1
    ##  6 Black               48 Male             0
    ##  7 Black               21 Male             1
    ##  8 Black               17 Male             0
    ##  9 Black               49 Male             0
    ## 10 Black               31 Male             0
    ## # … with 200 more rows
    ## 
    ## [[17]]
    ## # A tibble: 1,887 × 4
    ##    victim_race victim_age victim_sex outcome
    ##    <chr>            <dbl> <chr>        <dbl>
    ##  1 White               48 Male             1
    ##  2 Black               42 Male             1
    ##  3 Black               28 Male             1
    ##  4 Black               23 Male             1
    ##  5 Black               30 Male             1
    ##  6 White               NA Male             0
    ##  7 Black               26 Male             1
    ##  8 White               27 Male             1
    ##  9 Black               57 Male             1
    ## 10 Black               30 Male             1
    ## # … with 1,877 more rows
    ## 
    ## [[18]]
    ## # A tibble: 1,237 × 4
    ##    victim_race victim_age victim_sex outcome
    ##    <chr>            <dbl> <chr>        <dbl>
    ##  1 Black               21 Male             0
    ##  2 Black               35 Male             0
    ##  3 White               27 Male             1
    ##  4 Black               59 Female           0
    ##  5 Black               19 Male             0
    ##  6 White               47 Male             1
    ##  7 Black               52 Male             0
    ##  8 White               58 Male             0
    ##  9 Black               36 Female           0
    ## 10 Black               34 Female           1
    ## # … with 1,227 more rows
    ## 
    ## [[19]]
    ## # A tibble: 1,138 × 4
    ##    victim_race victim_age victim_sex outcome
    ##    <chr>            <dbl> <chr>        <dbl>
    ##  1 Black               46 Female           0
    ##  2 Black               19 Male             1
    ##  3 White               37 Female           1
    ##  4 White               43 Male             1
    ##  5 White               52 Female           0
    ##  6 Black               53 Male             0
    ##  7 White               58 Male             1
    ##  8 White               57 Female           1
    ##  9 Black               19 Male             1
    ## 10 White               38 Female           1
    ## # … with 1,128 more rows
    ## 
    ## [[20]]
    ## # A tibble: 909 × 4
    ##    victim_race victim_age victim_sex outcome
    ##    <chr>            <dbl> <chr>        <dbl>
    ##  1 Black               19 Male             1
    ##  2 White               27 Female           0
    ##  3 Black               23 Male             0
    ##  4 Black               20 Female           1
    ##  5 Black               25 Male             0
    ##  6 White               46 Female           1
    ##  7 Black               65 Female           1
    ##  8 White               45 Male             1
    ##  9 Black               19 Male             1
    ## 10 Black               47 Male             0
    ## # … with 899 more rows
    ## 
    ## [[21]]
    ## # A tibble: 186 × 4
    ##    victim_race victim_age victim_sex outcome
    ##    <chr>            <dbl> <chr>        <dbl>
    ##  1 Black               44 Female           1
    ##  2 Black               39 Female           1
    ##  3 Black               37 Male             0
    ##  4 Black               20 Male             0
    ##  5 Black               47 Male             1
    ##  6 Black               19 Male             1
    ##  7 Black               52 Male             1
    ##  8 Black               22 Male             0
    ##  9 Black                2 Male             0
    ## 10 Black               23 Male             1
    ## # … with 176 more rows
    ## 
    ## [[22]]
    ## # A tibble: 1,078 × 4
    ##    victim_race victim_age victim_sex outcome
    ##    <chr>            <dbl> <chr>        <dbl>
    ##  1 Black               41 Male             1
    ##  2 White               65 Male             0
    ##  3 Black               64 Male             1
    ##  4 Black               35 Male             0
    ##  5 White               40 Female           1
    ##  6 Black               21 Male             0
    ##  7 White               29 Male             1
    ##  8 White               27 Male             1
    ##  9 Black               45 Male             0
    ## 10 Black               23 Male             0
    ## # … with 1,068 more rows
    ## 
    ## [[23]]
    ## # A tibble: 550 × 4
    ##    victim_race victim_age victim_sex outcome
    ##    <chr>            <dbl> <chr>        <dbl>
    ##  1 White               38 Male             1
    ##  2 Black                8 Male             1
    ##  3 White               15 Male             0
    ##  4 Black               26 Male             0
    ##  5 Black               37 Female           1
    ##  6 Black               35 Male             0
    ##  7 White               35 Female           1
    ##  8 White               50 Male             1
    ##  9 Black               63 Male             0
    ## 10 White               36 Male             1
    ## # … with 540 more rows
    ## 
    ## [[24]]
    ## # A tibble: 1,421 × 4
    ##    victim_race victim_age victim_sex outcome
    ##    <chr>            <dbl> <chr>        <dbl>
    ##  1 Black               28 Male             1
    ##  2 Black               18 Male             1
    ##  3 Black               34 Male             1
    ##  4 Black               24 Female           1
    ##  5 Black               21 Male             0
    ##  6 Black               42 Female           1
    ##  7 Black                0 Female           1
    ##  8 Black               24 Male             1
    ##  9 Black               29 Male             1
    ## 10 Black               30 Male             0
    ## # … with 1,411 more rows
    ## 
    ## [[25]]
    ## # A tibble: 438 × 4
    ##    victim_race victim_age victim_sex outcome
    ##    <chr>            <dbl> <chr>        <dbl>
    ##  1 Black               NA Male             0
    ##  2 Black               30 Male             0
    ##  3 Black               24 Male             1
    ##  4 Black               48 Male             1
    ##  5 White               56 Male             1
    ##  6 Black                2 Male             1
    ##  7 Black                4 Female           1
    ##  8 Black               38 Male             0
    ##  9 Black               26 Male             0
    ## 10 Black               16 Male             0
    ## # … with 428 more rows
    ## 
    ## [[26]]
    ## # A tibble: 994 × 4
    ##    victim_race victim_age victim_sex outcome
    ##    <chr>            <dbl> <chr>        <dbl>
    ##  1 White               59 Female           0
    ##  2 White               22 Male             1
    ##  3 White               39 Female           0
    ##  4 White               40 Female           1
    ##  5 White               41 Male             1
    ##  6 Black               33 Male             1
    ##  7 White                1 Male             1
    ##  8 White               34 Female           1
    ##  9 Black               24 Male             1
    ## 10 White                3 Male             1
    ## # … with 984 more rows
    ## 
    ## [[27]]
    ## # A tibble: 299 × 4
    ##    victim_race victim_age victim_sex outcome
    ##    <chr>            <dbl> <chr>        <dbl>
    ##  1 Black               20 Male             0
    ##  2 White               23 Male             1
    ##  3 Black               31 Male             1
    ##  4 Black               27 Male             0
    ##  5 Black               19 Male             0
    ##  6 Black               30 Male             0
    ##  7 Black               35 Male             0
    ##  8 White               44 Male             1
    ##  9 Black               30 Male             0
    ## 10 Black               34 Male             1
    ## # … with 289 more rows
    ## 
    ## [[28]]
…
